k_imuluses = {
	1002.1.1 = {
		liege = e_bulwar
		holder = sun_elvish0015 # Amarien Amarienzuir
	}
}

d_imuluses = {
	1002.1.1 = {
		holder = sun_elvish0015 # Amarien Amarienzuir
	}
}

c_eonkavan = {
	1002.1.1 = {
		holder = sun_elvish0015 # Amarien Amarienzuir
	}
}
