#k_storm_isles
##d_storm_isles
###c_storm_isles
190 = {		#Norcodd

    # Misc
    culture = cliff_gnomish
    religion = the_thought
	holding = castle_holding

    # History
}

###c_lilcodd
188 = {		#Lilcodd

    # Misc
    culture = cliff_gnomish
    religion = the_thought
	holding = castle_holding

    # History
}

###c_oddcodd
198 = {		#Oddcodd

    # Misc
    culture = cliff_gnomish
    religion = the_thought
	holding = castle_holding

    # History
}
199 = {		#Docodd

    # Misc
    holding = none

    # History
}